Tranbalho Neander/NEANDER/simulation/qsim/NEANDER.msim.vcd
$comment
	File created using the following command:
		vcd file NEANDER.msim.vcd -direction
$end
$date
	Sat Feb 03 11:59:24 2024
$end
$version
	ModelSim Version 10.1d
$end
$timescale
	1ps
$end
$scope module Projeto_vlg_vec_tst $end
$var reg 1 ! clk $end
$var reg 1 " clk_in $end
$var reg 1 # res $end
$var wire 1 $ AC [7] $end
$var wire 1 % AC [6] $end
$var wire 1 & AC [5] $end
$var wire 1 ' AC [4] $end
$var wire 1 ( AC [3] $end
$var wire 1 ) AC [2] $end
$var wire 1 * AC [1] $end
$var wire 1 + AC [0] $end
$var wire 1 , ACdisplay0 [6] $end
$var wire 1 - ACdisplay0 [5] $end
$var wire 1 . ACdisplay0 [4] $end
$var wire 1 / ACdisplay0 [3] $end
$var wire 1 0 ACdisplay0 [2] $end
$var wire 1 1 ACdisplay0 [1] $end
$var wire 1 2 ACdisplay0 [0] $end
$var wire 1 3 ACdisplay1 [6] $end
$var wire 1 4 ACdisplay1 [5] $end
$var wire 1 5 ACdisplay1 [4] $end
$var wire 1 6 ACdisplay1 [3] $end
$var wire 1 7 ACdisplay1 [2] $end
$var wire 1 8 ACdisplay1 [1] $end
$var wire 1 9 ACdisplay1 [0] $end
$var wire 1 : ADD $end
$var wire 1 ; AND $end
$var wire 1 < carga_AC $end
$var wire 1 = carga_NZ $end
$var wire 1 > carga_PC $end
$var wire 1 ? carga_RDM $end
$var wire 1 @ carga_REM $end
$var wire 1 A carga_RI $end
$var wire 1 B goto_t0 $end
$var wire 1 C HLT $end
$var wire 1 D incrementa_PC $end
$var wire 1 E JMP $end
$var wire 1 F JN $end
$var wire 1 G JZ $end
$var wire 1 H LDA $end
$var wire 1 I N $end
$var wire 1 J NOP $end
$var wire 1 K NOT $end
$var wire 1 L OR $end
$var wire 1 M PC_out [7] $end
$var wire 1 N PC_out [6] $end
$var wire 1 O PC_out [5] $end
$var wire 1 P PC_out [4] $end
$var wire 1 Q PC_out [3] $end
$var wire 1 R PC_out [2] $end
$var wire 1 S PC_out [1] $end
$var wire 1 T PC_out [0] $end
$var wire 1 U PCdisplay0 [6] $end
$var wire 1 V PCdisplay0 [5] $end
$var wire 1 W PCdisplay0 [4] $end
$var wire 1 X PCdisplay0 [3] $end
$var wire 1 Y PCdisplay0 [2] $end
$var wire 1 Z PCdisplay0 [1] $end
$var wire 1 [ PCdisplay0 [0] $end
$var wire 1 \ PCdisplay1 [6] $end
$var wire 1 ] PCdisplay1 [5] $end
$var wire 1 ^ PCdisplay1 [4] $end
$var wire 1 _ PCdisplay1 [3] $end
$var wire 1 ` PCdisplay1 [2] $end
$var wire 1 a PCdisplay1 [1] $end
$var wire 1 b PCdisplay1 [0] $end
$var wire 1 c RDM_out [7] $end
$var wire 1 d RDM_out [6] $end
$var wire 1 e RDM_out [5] $end
$var wire 1 f RDM_out [4] $end
$var wire 1 g RDM_out [3] $end
$var wire 1 h RDM_out [2] $end
$var wire 1 i RDM_out [1] $end
$var wire 1 j RDM_out [0] $end
$var wire 1 k read $end
$var wire 1 l ROM_out [7] $end
$var wire 1 m ROM_out [6] $end
$var wire 1 n ROM_out [5] $end
$var wire 1 o ROM_out [4] $end
$var wire 1 p ROM_out [3] $end
$var wire 1 q ROM_out [2] $end
$var wire 1 r ROM_out [1] $end
$var wire 1 s ROM_out [0] $end
$var wire 1 t sel $end
$var wire 1 u STA $end
$var wire 1 v ULA_out [7] $end
$var wire 1 w ULA_out [6] $end
$var wire 1 x ULA_out [5] $end
$var wire 1 y ULA_out [4] $end
$var wire 1 z ULA_out [3] $end
$var wire 1 { ULA_out [2] $end
$var wire 1 | ULA_out [1] $end
$var wire 1 } ULA_out [0] $end
$var wire 1 ~ ULAADD $end
$var wire 1 !! ULAAND $end
$var wire 1 "! ULANOT $end
$var wire 1 #! ULAOR $end
$var wire 1 $! ULAy $end
$var wire 1 %! write $end
$var wire 1 &! Z $end
$var wire 1 '! sampler $end
$scope module i1 $end
$var wire 1 (! gnd $end
$var wire 1 )! vcc $end
$var wire 1 *! unknown $end
$var tri1 1 +! devclrn $end
$var tri1 1 ,! devpor $end
$var tri1 1 -! devoe $end
$var wire 1 .! inst|inst5|inst~2_combout $end
$var wire 1 /! inst2|inst8|$00000|auto_generated|result_node[5]~24_combout $end
$var wire 1 0! inst2|inst8|$00000|auto_generated|result_node[4]~27_combout $end
$var wire 1 1! inst2|inst8|$00000|auto_generated|result_node[1]~35_combout $end
$var wire 1 2! inst6|inst10~q $end
$var wire 1 3! inst8|inst21~combout $end
$var wire 1 4! inst6|inst11|inst2~0_combout $end
$var wire 1 5! inst2|inst8|$00000|auto_generated|result_node[3]~42_combout $end
$var wire 1 6! clk_in~input_o $end
$var wire 1 7! carga_REM~output_o $end
$var wire 1 8! HLT~output_o $end
$var wire 1 9! carga_RI~output_o $end
$var wire 1 :! RDM_out[7]~output_o $end
$var wire 1 ;! RDM_out[6]~output_o $end
$var wire 1 <! RDM_out[5]~output_o $end
$var wire 1 =! RDM_out[4]~output_o $end
$var wire 1 >! RDM_out[3]~output_o $end
$var wire 1 ?! RDM_out[2]~output_o $end
$var wire 1 @! RDM_out[1]~output_o $end
$var wire 1 A! RDM_out[0]~output_o $end
$var wire 1 B! read~output_o $end
$var wire 1 C! sel~output_o $end
$var wire 1 D! PC_out[7]~output_o $end
$var wire 1 E! PC_out[6]~output_o $end
$var wire 1 F! PC_out[5]~output_o $end
$var wire 1 G! PC_out[4]~output_o $end
$var wire 1 H! PC_out[3]~output_o $end
$var wire 1 I! PC_out[2]~output_o $end
$var wire 1 J! PC_out[1]~output_o $end
$var wire 1 K! PC_out[0]~output_o $end
$var wire 1 L! carga_PC~output_o $end
$var wire 1 M! incrementa_PC~output_o $end
$var wire 1 N! goto_t0~output_o $end
$var wire 1 O! N~output_o $end
$var wire 1 P! AC[7]~output_o $end
$var wire 1 Q! AC[6]~output_o $end
$var wire 1 R! AC[5]~output_o $end
$var wire 1 S! AC[4]~output_o $end
$var wire 1 T! AC[3]~output_o $end
$var wire 1 U! AC[2]~output_o $end
$var wire 1 V! AC[1]~output_o $end
$var wire 1 W! AC[0]~output_o $end
$var wire 1 X! carga_AC~output_o $end
$var wire 1 Y! ULA_out[7]~output_o $end
$var wire 1 Z! ULA_out[6]~output_o $end
$var wire 1 [! ULA_out[5]~output_o $end
$var wire 1 \! ULA_out[4]~output_o $end
$var wire 1 ]! ULA_out[3]~output_o $end
$var wire 1 ^! ULA_out[2]~output_o $end
$var wire 1 _! ULA_out[1]~output_o $end
$var wire 1 `! ULA_out[0]~output_o $end
$var wire 1 a! ULAADD~output_o $end
$var wire 1 b! ULAAND~output_o $end
$var wire 1 c! ULAOR~output_o $end
$var wire 1 d! ULANOT~output_o $end
$var wire 1 e! ULAy~output_o $end
$var wire 1 f! carga_NZ~output_o $end
$var wire 1 g! Z~output_o $end
$var wire 1 h! NOP~output_o $end
$var wire 1 i! STA~output_o $end
$var wire 1 j! LDA~output_o $end
$var wire 1 k! ADD~output_o $end
$var wire 1 l! OR~output_o $end
$var wire 1 m! AND~output_o $end
$var wire 1 n! NOT~output_o $end
$var wire 1 o! JMP~output_o $end
$var wire 1 p! JN~output_o $end
$var wire 1 q! JZ~output_o $end
$var wire 1 r! carga_RDM~output_o $end
$var wire 1 s! write~output_o $end
$var wire 1 t! ACdisplay0[6]~output_o $end
$var wire 1 u! ACdisplay0[5]~output_o $end
$var wire 1 v! ACdisplay0[4]~output_o $end
$var wire 1 w! ACdisplay0[3]~output_o $end
$var wire 1 x! ACdisplay0[2]~output_o $end
$var wire 1 y! ACdisplay0[1]~output_o $end
$var wire 1 z! ACdisplay0[0]~output_o $end
$var wire 1 {! ACdisplay1[6]~output_o $end
$var wire 1 |! ACdisplay1[5]~output_o $end
$var wire 1 }! ACdisplay1[4]~output_o $end
$var wire 1 ~! ACdisplay1[3]~output_o $end
$var wire 1 !" ACdisplay1[2]~output_o $end
$var wire 1 "" ACdisplay1[1]~output_o $end
$var wire 1 #" ACdisplay1[0]~output_o $end
$var wire 1 $" PCdisplay0[6]~output_o $end
$var wire 1 %" PCdisplay0[5]~output_o $end
$var wire 1 &" PCdisplay0[4]~output_o $end
$var wire 1 '" PCdisplay0[3]~output_o $end
$var wire 1 (" PCdisplay0[2]~output_o $end
$var wire 1 )" PCdisplay0[1]~output_o $end
$var wire 1 *" PCdisplay0[0]~output_o $end
$var wire 1 +" PCdisplay1[6]~output_o $end
$var wire 1 ," PCdisplay1[5]~output_o $end
$var wire 1 -" PCdisplay1[4]~output_o $end
$var wire 1 ." PCdisplay1[3]~output_o $end
$var wire 1 /" PCdisplay1[2]~output_o $end
$var wire 1 0" PCdisplay1[1]~output_o $end
$var wire 1 1" PCdisplay1[0]~output_o $end
$var wire 1 2" ROM_out[7]~output_o $end
$var wire 1 3" ROM_out[6]~output_o $end
$var wire 1 4" ROM_out[5]~output_o $end
$var wire 1 5" ROM_out[4]~output_o $end
$var wire 1 6" ROM_out[3]~output_o $end
$var wire 1 7" ROM_out[2]~output_o $end
$var wire 1 8" ROM_out[1]~output_o $end
$var wire 1 9" ROM_out[0]~output_o $end
$var wire 1 :" res~input_o $end
$var wire 1 ;" inst4|2|inst3~0_combout $end
$var wire 1 <" inst4|2|inst1|inst2~0_combout $end
$var wire 1 =" inst4|2|inst~q $end
$var wire 1 >" inst4|2|inst10~3_combout $end
$var wire 1 ?" inst3|Mux4~1_combout $end
$var wire 1 @" inst3|Mux4~2_combout $end
$var wire 1 A" inst7|inst8~feeder_combout $end
$var wire 1 B" inst|inst10|inst8~0_combout $end
$var wire 1 C" inst14|inst~1_combout $end
$var wire 1 D" inst14|inst~5_combout $end
$var wire 1 E" inst14|inst~4_combout $end
$var wire 1 F" inst14|inst~3_combout $end
$var wire 1 G" inst|inst|inst2~0_combout $end
$var wire 1 H" inst|inst|inst2~2_combout $end
$var wire 1 I" inst|inst6|inst~0_combout $end
$var wire 1 J" inst|inst6|inst~1_combout $end
$var wire 1 K" inst7|inst8~q $end
$var wire 1 L" inst|inst|inst5~2_combout $end
$var wire 1 M" inst6|inst9|inst2~0_combout $end
$var wire 1 N" inst6|inst8~q $end
$var wire 1 O" inst3|Mux6~0_combout $end
$var wire 1 P" inst3|Mux6~1_combout $end
$var wire 1 Q" inst7|inst4~q $end
$var wire 1 R" inst6|inst5|inst2~0_combout $end
$var wire 1 S" inst6|inst4~q $end
$var wire 1 T" inst3|Mux3~0_combout $end
$var wire 1 U" inst3|Mux3~1_combout $end
$var wire 1 V" inst7|inst10~feeder_combout $end
$var wire 1 W" inst7|inst10~q $end
$var wire 1 X" inst13|inst10~q $end
$var wire 1 Y" inst14|inst~9_combout $end
$var wire 1 Z" inst14|inst~7_combout $end
$var wire 1 [" inst14|inst~6_combout $end
$var wire 1 \" inst|goto|inst~0_combout $end
$var wire 1 ]" inst|goto|inst~1_combout $end
$var wire 1 ^" inst|goto|inst~2_combout $end
$var wire 1 _" inst4|inst~0_combout $end
$var wire 1 `" inst4|inst~q $end
$var wire 1 a" inst4|2|inst3~q $end
$var wire 1 b" inst4|2|inst10~2_combout $end
$var wire 1 c" inst13|inst12~q $end
$var wire 1 d" inst14|inst~2_combout $end
$var wire 1 e" inst14|inst~10_combout $end
$var wire 1 f" inst|inst10|inst10~combout $end
$var wire 1 g" inst1|inst1~combout $end
$var wire 1 h" inst1|inst~combout $end
$var wire 1 i" inst2|inst8|$00000|auto_generated|result_node[7]~16_combout $end
$var wire 1 j" inst|inst12|inst~combout $end
$var wire 1 k" inst3|Mux5~0_combout $end
$var wire 1 l" inst3|Mux5~1_combout $end
$var wire 1 m" inst7|inst6~feeder_combout $end
$var wire 1 n" inst7|inst6~q $end
$var wire 1 o" inst2|inst8|$00000|auto_generated|result_node[2]~32_combout $end
$var wire 1 p" inst2|inst8|$00000|auto_generated|result_node[2]~33_combout $end
$var wire 1 q" inst2|inst8|$00000|auto_generated|result_node[2]~34_combout $end
$var wire 1 r" inst5|inst6~feeder_combout $end
$var wire 1 s" inst|inst10|inst~combout $end
$var wire 1 t" inst5|inst6~q $end
$var wire 1 u" inst2|inst2|inst3|inst5~0_combout $end
$var wire 1 v" inst2|inst8|$00000|auto_generated|result_node[0]~39_combout $end
$var wire 1 w" inst2|inst8|$00000|auto_generated|result_node[0]~40_combout $end
$var wire 1 x" inst5|inst~q $end
$var wire 1 y" inst2|inst8|$00000|auto_generated|result_node[1]~36_combout $end
$var wire 1 z" inst2|inst8|$00000|auto_generated|result_node[1]~37_combout $end
$var wire 1 {" inst2|inst8|$00000|auto_generated|result_node[1]~38_combout $end
$var wire 1 |" inst5|inst4~q $end
$var wire 1 }" inst2|inst2|inst2|inst5~0_combout $end
$var wire 1 ~" inst2|inst2|inst3|inst5~1_combout $end
$var wire 1 !# inst2|inst2|inst4|inst5~0_combout $end
$var wire 1 "# inst2|inst8|$00000|auto_generated|result_node[4]~26_combout $end
$var wire 1 ## inst2|inst8|$00000|auto_generated|result_node[4]~28_combout $end
$var wire 1 $# inst5|inst10~q $end
$var wire 1 %# inst2|inst2|inst5|inst5~0_combout $end
$var wire 1 &# inst2|inst8|$00000|auto_generated|result_node[5]~41_combout $end
$var wire 1 '# inst2|inst8|$00000|auto_generated|result_node[5]~23_combout $end
$var wire 1 (# inst2|inst8|$00000|auto_generated|result_node[5]~25_combout $end
$var wire 1 )# inst5|inst12~q $end
$var wire 1 *# inst2|inst2|inst6|inst5~0_combout $end
$var wire 1 +# inst2|inst2|inst6|inst5~1_combout $end
$var wire 1 ,# inst2|inst8|$00000|auto_generated|result_node[6]~20_combout $end
$var wire 1 -# inst2|inst8|$00000|auto_generated|result_node[6]~21_combout $end
$var wire 1 .# inst2|inst8|$00000|auto_generated|result_node[6]~22_combout $end
$var wire 1 /# inst5|inst14~q $end
$var wire 1 0# inst2|inst8|$00000|auto_generated|result_node[7]~17_combout $end
$var wire 1 1# inst2|inst8|$00000|auto_generated|result_node[7]~18_combout $end
$var wire 1 2# inst2|inst8|$00000|auto_generated|result_node[7]~19_combout $end
$var wire 1 3# inst5|inst16~q $end
$var wire 1 4# inst|inst|inst2~1_combout $end
$var wire 1 5# inst|inst11|inst~0_combout $end
$var wire 1 6# inst8|inst2|inst2~0_combout $end
$var wire 1 7# inst8|inst~q $end
$var wire 1 8# inst8|inst6|inst2~0_combout $end
$var wire 1 9# inst|inst17|inst~0_combout $end
$var wire 1 :# inst|inst17|inst~1_combout $end
$var wire 1 ;# inst8|inst33~2_combout $end
$var wire 1 <# inst8|inst4~q $end
$var wire 1 =# inst8|inst11~combout $end
$var wire 1 ># inst8|inst10|inst2~0_combout $end
$var wire 1 ?# inst8|inst8~q $end
$var wire 1 @# inst6|inst7|inst2~0_combout $end
$var wire 1 A# inst6|inst6~q $end
$var wire 1 B# inst3|Mux7~0_combout $end
$var wire 1 C# inst3|Mux7~1_combout $end
$var wire 1 D# inst3|Mux7~2_combout $end
$var wire 1 E# inst7|inst~q $end
$var wire 1 F# inst6|inst3|inst2~0_combout $end
$var wire 1 G# inst6|inst~q $end
$var wire 1 H# inst3|Mux2~0_combout $end
$var wire 1 I# inst3|Mux2~1_combout $end
$var wire 1 J# inst7|inst12~q $end
$var wire 1 K# inst6|inst13|inst2~0_combout $end
$var wire 1 L# inst6|inst12~q $end
$var wire 1 M# inst8|inst20|inst2~0_combout $end
$var wire 1 N# inst8|inst18~q $end
$var wire 1 O# inst8|inst16~combout $end
$var wire 1 P# inst8|inst15|inst2~0_combout $end
$var wire 1 Q# inst8|inst13~q $end
$var wire 1 R# inst8|inst26~combout $end
$var wire 1 S# inst8|inst25|inst2~0_combout $end
$var wire 1 T# inst8|inst23~q $end
$var wire 1 U# inst8|inst31~combout $end
$var wire 1 V# inst8|inst30|inst2~0_combout $end
$var wire 1 W# inst8|inst28~q $end
$var wire 1 X# inst6|inst15|inst2~0_combout $end
$var wire 1 Y# inst6|inst14~q $end
$var wire 1 Z# inst3|Mux4~0_combout $end
$var wire 1 [# inst3|Mux1~0_combout $end
$var wire 1 \# inst3|Mux1~1_combout $end
$var wire 1 ]# inst7|inst14~q $end
$var wire 1 ^# inst13|inst14~q $end
$var wire 1 _# inst|inst|inst6~0_combout $end
$var wire 1 `# inst6|inst17|inst2~0_combout $end
$var wire 1 a# inst6|inst16~q $end
$var wire 1 b# inst3|Mux0~0_combout $end
$var wire 1 c# inst3|Mux0~1_combout $end
$var wire 1 d# inst7|inst16~q $end
$var wire 1 e# inst13|inst16~q $end
$var wire 1 f# inst14|inst~8_combout $end
$var wire 1 g# inst4|2|inst5~0_combout $end
$var wire 1 h# inst4|2|inst5~q $end
$var wire 1 i# inst4|2|inst10~1_combout $end
$var wire 1 j# inst4|2|inst10~0_combout $end
$var wire 1 k# inst|inst|inst5~3_combout $end
$var wire 1 l# inst|inst|inst~combout $end
$var wire 1 m# clk~input_o $end
$var wire 1 n# clk~inputclkctrl_outclk $end
$var wire 1 o# inst8|inst36~combout $end
$var wire 1 p# inst8|inst35|inst2~0_combout $end
$var wire 1 q# inst8|inst33~q $end
$var wire 1 r# inst2|inst8|$00000|auto_generated|result_node[3]~29_combout $end
$var wire 1 s# inst2|inst8|$00000|auto_generated|result_node[3]~30_combout $end
$var wire 1 t# inst2|inst8|$00000|auto_generated|result_node[3]~31_combout $end
$var wire 1 u# inst5|inst8~q $end
$var wire 1 v# inst|inst12|inst1~combout $end
$var wire 1 w# inst|inst12|inst2~combout $end
$var wire 1 x# inst|inst12|inst4~combout $end
$var wire 1 y# inst2|inst9~0_combout $end
$var wire 1 z# inst2|inst9~1_combout $end
$var wire 1 {# inst2|inst9~combout $end
$var wire 1 |# inst11|inst~q $end
$var wire 1 }# inst14|inst~0_combout $end
$var wire 1 ~# inst|inst5|inst~3_combout $end
$var wire 1 !$ inst|inst7|inst~combout $end
$var wire 1 "$ inst17|inst6|inst4~0_combout $end
$var wire 1 #$ inst17|inst4|inst14~0_combout $end
$var wire 1 $$ inst17|inst1|inst4~0_combout $end
$var wire 1 %$ inst17|inst3|inst~0_combout $end
$var wire 1 &$ inst17|inst2|inst4~0_combout $end
$var wire 1 '$ inst17|inst|inst6~0_combout $end
$var wire 1 ($ inst17|inst5|inst10~0_combout $end
$var wire 1 )$ inst16|inst6|inst4~0_combout $end
$var wire 1 *$ inst16|inst4|inst14~0_combout $end
$var wire 1 +$ inst16|inst1|inst4~0_combout $end
$var wire 1 ,$ inst16|inst3|inst~0_combout $end
$var wire 1 -$ inst16|inst2|inst4~0_combout $end
$var wire 1 .$ inst16|inst|inst6~0_combout $end
$var wire 1 /$ inst16|inst5|inst10~0_combout $end
$var wire 1 0$ inst15|inst6|inst4~0_combout $end
$var wire 1 1$ inst15|inst4|inst14~0_combout $end
$var wire 1 2$ inst15|inst1|inst4~0_combout $end
$var wire 1 3$ inst15|inst3|inst~0_combout $end
$var wire 1 4$ inst15|inst2|inst4~0_combout $end
$var wire 1 5$ inst15|inst|inst6~0_combout $end
$var wire 1 6$ inst15|inst5|inst10~0_combout $end
$var wire 1 7$ inst9|inst6|inst4~0_combout $end
$var wire 1 8$ inst9|inst4|inst14~0_combout $end
$var wire 1 9$ inst9|inst1|inst4~0_combout $end
$var wire 1 :$ inst9|inst3|inst~0_combout $end
$var wire 1 ;$ inst9|inst2|inst4~0_combout $end
$var wire 1 <$ inst9|inst|inst6~0_combout $end
$var wire 1 =$ inst9|inst5|inst10~0_combout $end
$upscope $end
$upscope $end
$enddefinitions $end
#0
$dumpvars
0!
x"
1#
0+
0*
0)
0(
0'
0&
0%
0$
02
01
00
0/
0.
0-
1,
09
08
07
06
05
04
13
0:
0;
0<
0=
0>
0?
1@
0A
0B
0C
0D
0E
0F
0G
0H
0I
1J
0K
0L
0T
0S
0R
0Q
0P
0O
0N
0M
0[
0Z
0Y
0X
0W
0V
1U
0b
0a
0`
0_
0^
0]
1\
0j
0i
0h
0g
0f
0e
0d
0c
0k
0s
0r
0q
0p
0o
1n
0m
0l
0t
0u
0}
0|
0{
0z
0y
0x
0w
0v
0~
0!!
0"!
0#!
0$!
0%!
0&!
x'!
0(!
1)!
x*!
1+!
1,!
1-!
0.!
0/!
00!
01!
02!
03!
04!
05!
x6!
17!
08!
09!
0:!
0;!
0<!
0=!
0>!
0?!
0@!
0A!
0B!
0C!
0D!
0E!
0F!
0G!
0H!
0I!
0J!
0K!
0L!
0M!
0N!
0O!
0P!
0Q!
0R!
0S!
0T!
0U!
0V!
0W!
0X!
0Y!
0Z!
0[!
0\!
0]!
0^!
0_!
0`!
0a!
0b!
0c!
0d!
0e!
0f!
0g!
1h!
0i!
0j!
0k!
0l!
0m!
0n!
0o!
0p!
0q!
0r!
0s!
1t!
0u!
0v!
0w!
0x!
0y!
0z!
1{!
0|!
0}!
0~!
0!"
0""
0#"
1$"
0%"
0&"
0'"
0("
0)"
0*"
1+"
0,"
0-"
0."
0/"
00"
01"
02"
03"
14"
05"
06"
07"
08"
09"
1:"
0;"
1<"
0="
0>"
0?"
0@"
0A"
0B"
0C"
0D"
0E"
0F"
0G"
0H"
0I"
0J"
0K"
0L"
0M"
0N"
0O"
0P"
0Q"
0R"
0S"
0T"
0U"
0V"
0W"
0X"
1Y"
0Z"
0["
1\"
0]"
0^"
1_"
0`"
0a"
0b"
0c"
0d"
0e"
0f"
0g"
0h"
1i"
0j"
0k"
0l"
0m"
0n"
0o"
0p"
0q"
0r"
0s"
0t"
0u"
0v"
0w"
0x"
0y"
0z"
0{"
0|"
0}"
0~"
0!#
0"#
0##
0$#
0%#
0&#
0'#
0(#
0)#
0*#
0+#
1,#
0-#
0.#
0/#
00#
01#
02#
03#
14#
05#
06#
07#
08#
09#
0:#
0;#
0<#
0=#
0>#
0?#
0@#
0A#
0B#
0C#
0D#
0E#
0F#
0G#
0H#
1I#
0J#
0K#
0L#
0M#
0N#
0O#
0P#
0Q#
0R#
0S#
0T#
0U#
0V#
0W#
0X#
0Y#
1Z#
0[#
0\#
0]#
0^#
0_#
0`#
0a#
0b#
0c#
0d#
0e#
0f#
0g#
0h#
0i#
1j#
0k#
1l#
0m#
0n#
0o#
0p#
0q#
0r#
0s#
0t#
0u#
0v#
0w#
0x#
0y#
0z#
1{#
0|#
0}#
0~#
0!$
1"$
0#$
1$$
0%$
0&$
0'$
0($
1)$
0*$
1+$
0,$
0-$
0.$
0/$
10$
01$
12$
03$
04$
05$
06$
17$
08$
19$
0:$
0;$
0<$
0=$
$end
#10000
1!
1m#
1n#
0'!
1`"
#20000
0!
0m#
0n#
1'!
#30000
1!
1m#
1n#
0'!
1="
0j#
19#
0<"
1;"
1J"
1B!
1k
0l#
1:#
1;#
16#
07!
1M!
0@
1D
#40000
0!
0m#
0n#
1'!
#50000
1!
1m#
1n#
0'!
1a"
0="
1J#
17#
09#
1<"
02$
1F#
18#
06#
1<!
1K!
1e
1T
1b"
0J"
1(#
16$
13$
11$
0{#
1&"
19!
0B!
1[!
1*"
1'"
1%"
1W
1A
0k
1x
1[
1X
1V
0:#
0;#
16#
0M!
0D
#60000
0!
0m#
0n#
1'!
#70000
1!
1m#
1n#
0'!
1c"
1="
1_#
1B"
1i#
1g#
0<"
0;"
0Y"
1F"
0b"
1G"
0h!
1j!
09!
0J
1H
0A
1H"
1l#
17!
1@
#80000
0!
0m#
0n#
1'!
#90000
1!
1m#
1n#
0'!
1h#
1G#
0a"
0="
0i#
1.!
1b#
1H#
1<"
1I"
0l#
1:#
1c#
0I#
1;#
06#
07!
1M!
12"
04"
0@
1D
1l
0n
1J"
1B!
1k
#100000
0!
0m#
0n#
1'!
#110000
1!
1m#
1n#
0'!
1="
1d#
0J#
1<#
07#
1L"
0<"
1;"
0.!
0i"
12$
1R"
0F#
16#
1:!
0<!
1J!
0K!
1c
0e
1S
0T
1k#
0(#
06$
14$
03$
00$
1`#
0R"
0I"
11#
1{#
0&"
1C!
0[!
0*"
1("
0'"
0$"
0W
1t
0x
0[
1Y
0X
0U
0:#
1l#
1y#
0;#
06#
0M!
17!
0D
1@
0J"
12#
0{#
0B!
1Y!
0k
1v
#120000
0!
0m#
0n#
1'!
#130000
1!
1m#
1n#
0'!
1a#
0G#
1a"
0="
1B#
1O"
1?"
0b#
0H#
0L"
1<"
1.!
0c#
0k#
0`#
1R"
1I"
02"
0C!
0l
0t
1P"
1@"
0l#
1A"
18"
16"
07!
1r
1p
0@
1J"
1B!
1k
#140000
0!
0m#
0n#
1'!
#150000
1!
1m#
1n#
0'!
1="
0d#
1Q"
1K"
0g#
1>"
0<"
0;"
0.!
1i"
0:!
1@!
1>!
0c
1i
1g
1j"
1{"
1t#
0I"
01#
0y#
1z#
1e!
1_!
1]!
1$!
1|
1z
1s"
1^"
02#
0_"
1f!
1X!
1N!
0Y!
1=
1<
1B
0v
0J"
0B!
0k
#160000
0!
0m#
0n#
1'!
#170000
1!
1m#
1n#
0'!
0h#
0a"
0`"
0="
1u#
1|"
1j#
0>"
1<"
1s#
1r#
1%#
1!#
1}"
1z"
1y"
1T!
1V!
1(
1*
0j"
1%$
0"$
1"#
1o"
0e!
1w!
0t!
0$!
1/
0,
1l#
0s"
0^"
0t#
0{"
1_"
0z#
17!
0f!
0X!
0N!
0]!
0_!
1@
0=
0<
0B
0z
0|
1##
1q"
1z#
1r"
1\!
1^!
1y
1{
#180000
0!
0m#
0n#
1'!
#190000
1!
1m#
1n#
0'!
0a#
1`"
1S"
0B#
0O"
0?"
1[#
1I#
14"
1n
0P"
0@"
1\#
0A"
08"
06"
13"
0r
0p
1m
#200000
0!
0m#
0n#
1'!
#210000
1!
1m#
1n#
0'!
1="
0j#
19#
0<"
1;"
1J"
1B!
1k
0l#
1:#
1;#
16#
07!
1M!
0@
1D
#220000
0!
0m#
0n#
1'!
#230000
1!
1m#
1n#
0'!
1a"
0="
1]#
1J#
17#
0Q"
0K"
09#
1<"
0,#
02$
1F#
1=#
08#
06#
0}"
0%#
0!#
1;!
1<!
1K!
0@!
0>!
1d
1e
1T
0i
0g
1b"
0J"
1(#
04$
1{"
1t#
1-#
1>#
0o"
0"#
1&"
19!
0B!
1[!
0("
1_!
1]!
1W
1A
0k
1x
0Y
1|
1z
0:#
0;#
16#
0M!
0D
1.#
0q"
0##
1y#
0r"
1Z!
0^!
0\!
1w
0{
0y
#240000
0!
0m#
0n#
1'!
#250000
1!
1m#
1n#
0'!
1^#
1="
0_#
0B"
1i#
1g#
0<"
0;"
1e"
0F"
0b"
1]"
0G"
1n!
0j!
09!
1K
0H
0A
1s"
1l#
1f"
0H"
1h"
1g"
1f!
1X!
17!
1d!
1=
1<
1@
1"!
1^"
0s#
11#
0-#
1,#
1"#
0z"
1v"
1p"
1o"
10!
1/!
0_"
1N!
1B
0l#
1-#
07!
0@
0t#
12#
0.#
1##
0{"
1w"
1q"
1r"
0]!
1Y!
0Z!
1\!
0_!
1`!
1^!
0z
1v
0w
1y
0|
1}
1{
1.#
1Z!
1w
#260000
0!
0m#
0n#
1'!
#270000
1!
1m#
1n#
0'!
1h#
0a"
0`"
0="
0u#
13#
1/#
1)#
1$#
0|"
1x"
1t"
0i#
1.!
1<"
0$$
1s#
0r#
0i"
10#
0,#
1+#
1'#
0/!
0"#
1z"
0y"
0v"
0o"
0T!
1P!
1O!
1Q!
1R!
1S!
0V!
1W!
1U!
0(
1$
1I
1%
1&
1'
0*
1+
1)
0f"
1'$
0%$
1.$
1-$
1,$
0)$
0]"
01#
0-#
0h"
0g"
1v!
0d!
1y!
0w!
1""
1!"
1~!
0{!
1.
0"!
11
0/
18
17
16
03
0s"
1t#
0(#
0##
1{"
0w"
0q"
0s#
1,#
1"#
0z"
1v"
0p"
1o"
00!
1/!
0r"
0f!
0X!
1]!
0[!
0\!
1_!
0`!
0^!
0=
0<
1z
0x
0y
1|
0}
0{
0^"
02#
0.#
1-#
1_"
0y#
0N!
0Y!
0Z!
0B
0v
0w
0t#
1##
0{"
1w"
1q"
1r"
0]!
1\!
0_!
1`!
1^!
0z
1y
0|
1}
1{
1.#
1y#
1Z!
1w
0h#
1j#
0g#
0.!
1l#
17!
1@
#280000
0!
0m#
0n#
1'!
#290000
1!
1m#
1n#
0'!
1G#
1`"
0[#
1T"
0\#
1U"
1V"
03"
15"
0m
1o
#300000
0!
0m#
0n#
1'!
#310000
1!
1m#
1n#
0'!
1="
0j#
19#
0<"
1;"
1J"
1B!
1k
0l#
1:#
1;#
06#
07!
1M!
0@
1D
#320000
0!
0m#
0n#
1'!
#330000
1!
1m#
1n#
0'!
1a"
0="
0]#
1?#
0<#
07#
1W"
09#
1<"
0,#
1@#
0R"
0F#
16#
1*#
1&#
0;!
1I!
0J!
0K!
1=!
0d
1R
0S
0T
1f
1b"
0J"
16$
13$
01$
0##
0-#
0'#
0/!
19!
0B!
1*"
1'"
0%"
0\!
1A
0k
1[
1X
0V
0y
0:#
0;#
06#
0M!
0D
0.#
1(#
0y#
0Z!
1[!
0w
1x
#340000
0!
0m#
0n#
1'!
#350000
1!
1m#
1n#
0'!
0^#
1X"
1="
1_#
1B"
1i#
1g#
0<"
0;"
0e"
1C"
1f"
0b"
1H"
1h"
1g"
0n!
1k!
1d!
09!
0K
1:
1"!
0A
0f"
1s#
1'#
0"#
1z"
0v"
1p"
0o"
10!
0h"
0g"
0d!
0"!
1l#
0s#
0'#
1"#
0z"
1v"
0p"
1o"
00!
17!
1@
1t#
0(#
1{"
0w"
0q"
0r"
1]!
0[!
1_!
0`!
0^!
1z
0x
1|
0}
0{
0t#
1(#
0{"
1w"
1q"
1r"
0]!
1[!
0_!
1`!
1^!
0z
1x
0|
1}
1{
#360000
0!
0m#
0n#
1'!
